 
     {
    "category" : [
        {
        "id" : "1",
        "name" : "film",
        "title" : "Film and Television",
        "article" : [
            {
                "id" : "1",
                "title" : "Farming(2018): A Review",
                "body" : "Farming is the story of Adewale Akinnuoye-Agbaje’s upbringing. The story tells the tale of how he became the head of a racist skinhead gang. His parents, of Nigerian descent, wanted to continue their education in London, and thus ‘farmed’ him out to a white working-class family in Essex when he was just six weeks old. The auto-biographical film highlights the perilous journey of navigating the 1970’s and 80’s in Tilbury, Essex as a black man.",
                "author" : "Toyin Martins",
                "date" : "22/03/20",
                "image" : "https://live.staticflickr.com/65535/49809599558_94077c0696_c.jpg",
                "imgalt" : "An image of a crowd of white men surrounding the black main character, Enitan, in farming. Enitan wears a pink polo shirt and a black knee length blazer. The man to his left wears a white shirt, and a similar blazer and a cast on his right arm. The man to his right wears a navy polo shirt ",
                "short" : "A review of the film: Farming",
                "sub" : [
                    {
                        "id" : "1",
                        "title" : "",
                        "body" : "His foster mother, named Ingrid in the film, is played by Kate Beckinsale, known for her roles in Underworld and Vacancy. She is introduced to us in the first scene. She appears realistic and convincing in her role. ",
                        "subsub" : [
                            {
                                "id" : "1",
                                "title" : "", 
                                "body" : "We then meet the young Enitan, the protagonist, who is played by Zephan Ammissah. He appears shy and creative and often plays with his imaginary friends behind the sofa. He can set the narrative and begins sowing the seeds of self-hatred, which are reinforced throughout the screenplay. "
                            }
                        ]
                    },
                    {
                        "id" : "1",
                        "title" : "",
                        "body" : "The film, in the beginning, highlights the lack of representation of young black Britons in the ’60s, ’70s and ’80s. The negative reinforcements of stereotypes, the constant racial slurs and harassment in the street, can only harm someone’s psyche, which we can see in full force in this film. ",
                        "subsub" : [
                            {
                                "id" : "1",
                                "title" : "", 
                                "body" : "Enitan as a teenager and young man is performed by Damson Idris, who is known for Snowfall and Black Mirror. His portrayal of Enitan is poignant and at times, distressing, showing strong signs of trauma and pain throughout the film. He allows us to feel great sympathy for him throughout his performance in this film. "
                            }
                        ]
                    },
                    {
                        "id" : "1",
                        "title" : "",
                        "body" : "The film is quite disturbing and at times difficult to comprehend or believe. The consistency of the violent racism that went on, the unlawfulness of the actions throughout the film make it difficult to digest. There are many points in time where the film will have you worried about the mental health of Enitan, but also angry that no one intervened much sooner. ",
                        "subsub" : [
                            {
                                "id" : "1",
                                "title" : "", 
                                "body" : "The artwork throughout the film is fitting. The stylisation of the buildings inside and out is typical of the time. The film's cinematography is quite dark and fits with the scenarios executed in the film. The direction is consistent and illustrates the story and provides an understanding of each character. As a viewer, it is an engaging piece of work and is consistent with the timing and setting of the film."
                            }
                        ]
                    },
                    {
                        "id" : "1",
                        "title" : "",
                        "body" : "Overall, if you are looking for a dramatic and shocking drama, this film is something to watch. It gives an insight into an unknown world, a time where parents would foster off their children to continue their education. In stories like this, you find yourself asking who is to blame and how many more children and young adults were victims of overt racism and discrimination, within their foster households, out on the street in school and within their small communities. How many others have similar stories? How many others did not make it as far? How many others were not allowed to redeem themselves?",
                        "subsub" : [
                            {
                            }
                        ]
                    }
                ],
          
                "tags" : [
                    {
                        "id" : "1",
                        "name" : "film"
                    }
                ]
                
            },
            {
                "id" : "2",
                "title" : "The Banker(2020): A Review",
                "body" : "Based on a true story, in the 1960s two African-American entrepreneurs hire a working-class white man to be the face and head of their multi-million dollar businesses. The cast includes Samuel L. Jackson as Joe Morris, Anthony Mackie as Bernard Garrett, Nicholas Hoult as Matt Steiner and Nia Long as Eunice Garrett. Samuel L. Jackson plays a witty and electric character often making fun of how white people view black people. Anthony Mackie plays a more reserved and intelligent character and is the man behind all the genius. Nicholas Hoult is the face of all the businesses and is taught by Mackie and Jackson how to perform and answer questions he will be inevitably asked as the head of all these businesses. ",
                 "author" : "Toyin Martins",
                "date" : "24/03/20",
                "image" : "https://live.staticflickr.com/65535/49811142477_097fb60ac0_z.jpg",
                "imgalt" : "The image shows three men standing in a grassy field with bushes in the background. A white man and two black men stand talking. The white man wears a blue cardigan and a brown cap. The black man in the middle wears a green cardigan and a brown hat. The black man on the far right wears a grey suit and a hat. ",
                "short" : "A review of the film: The Banker",
                "sub" : [
                    {
                        "id" : "2",
                        "body" : "The goals of Morris and Garrett are to invest in the African-American population and encourage them to pursue the American dream. The film is funny, witty and powerful and highlights the injustices of 1960’s America and today's America. The direction is fast-paced and consistently interesting. The movement of the film through the story is slow enough to gather an understanding of all the maths involved in the film but fast enough that you aren’t bogged down with information and remain interested.  ",
                        "subsub" : [
                            {
                                "id" : "2",
                                "body" : "The cinematography is playful, and the filming creates a great sense of the characters, their stories and the biases that affected peoples lives. The fact that two very capable and intelligent men were unable to be at the forefront of their businesses. Unable to truly show off their skills in a field they belonged in, a field that didn’t want them to be visible; shows just how silly racism truly is.  This film is one to watch and was produced by Apple TV and available to watch through them."
                            }
                        ]
                    }
                ],
          
                "tags" : [
                    {
                        "id" : "2",
                        "name" : "film"
                    }
                ]
                
            },
            {
                "id" : "3",
                "title" : "Straight outta Compton(2015): A Review",
                "body" : "As someone who only recently watched this film, I can understand what all the hype was about when this came out in the cinema. Straight outta Compton is a biography about the rap group NWA. The story tells the tale of the rise and fall of the group and the obstacles they face as a rap group using their music to highlight injustices in their community. The group is made up of Ice cube(O’shea Jackson Junior), Dr Dre(Corey Hawkins), Eazy-E(Jason Mitchell), DJ Yella(Neil Brown Jr), MC Ren(Aldis Hodge). Paul Giamatti plays Jerry Heller, the groups' unusual manager. ",
                "author" : "Toyin Martins",
                "date" : "25/03/20",
                "image" : "https://live.staticflickr.com/65535/49810292473_fefbcfb8f6_z.jpg",
                "imgalt" : "The image from left to right displays ice cube, dr. dre, eazy-e dj yella and mc ren. The image is in black and white and shows a portrait of each individual",
                "short" : "A review of the film: Straight outta Compton",
                "sub" : [
                    {
                        "id" : "3",
                        "title" : "",
                        "body" : "The film illustrates the hardships faced by the black community in terms of police violence. It showcases the brutality of it all and reminds us of the issues still faced by the black community in America to this day. The film is also a tribute to the great work done by all the artists and showcases their disagreements and history as friends and colleagues. If you enjoyed films such as “All Eyez on Me”, “Get rich or die tryin’” and “8 mile”, you will certainly enjoy this film.",
                        "subsub" : [
                            {
                            }
                        ]
                    }
                ],
          
                "tags" : [
                    {
                        "id" : "3",
                        "name" : "film"
                    }
                ]
                
            },
            {
                "id" : "4",
                "title" : "Parasite(2019): A Review",
                "body" : "Set in Seoul, Korea, a poor family(the Kims) con their way into filling the major household working roles of a rich family(the Parks). Things take a drastic turn when their deceit is discovered and they are threatened with exposure. This film went on to win four Oscars and you can understand why after watching. The direction of the movie is fantastic, with comedy and gloom mixed into one. The poor family of four played by Ki Taek, Ki Woo, Yeon Kyo and Dong Ik, play the roles of father, mother, sister and brother respectively. ",
                "author" : "Toyin Martins",
                "date" : "26/03/20",
                "image" : "https://live.staticflickr.com/65535/49811142502_a651ee904c_z.jpg",
                "imgalt" : "A man stands in the foreground in a black short cleeved shirt and black trousers. There is a black bar covering his eyes. The word parasite is in the bottom of the image. To the left of the man are a pair of legs. In the foreground there is a man and a woman on lawn chairs and behind them is a young man standing in a doorway. The are all in a back garden.",
                "short" : "A review of the film: Parasite",
                "sub" : [
                    {
                        "id" : "4",
                        "title" : "",
                        "body" : "Their familial dynamic Is relatable, charming and warm. They show their great intelligence and ability to work as a great team throughout the film. You will find yourselves torn between the Kims and the Parks as the film progresses, the Parks being unknowingly manipulated and tricked. But as time goes on you begin to lean towards the side of the Kims. The direction of this film is brilliant and engaging. ",
                        "subsub" : [
                            {
                                "id" : "4",
                                "title" : "", 
                                "body" : "The work speaks for itself as it has also gone onto win 255 awards. This comedic thriller will have you on the edge of your seat and you will enjoy the journey it takes you on. I do wish that the ending was a little more fleshed out and not so abrupt, but an interesting turn of events, nonetheless. "
                            }
                        ]
                    }
                ],
          
                "tags" : [
                    {
                        "id" : "4",
                        "name" : "film"
                    }
                ]
                
            },
            {
                "id" : "5",
                "title" : "The Invisible Man(2020): A Review",
                "body" : "When Cecilia’s(Elisabeth Moss) abusive ex-boyfriend(Oliver Jackson-Cohen)takes his life and leaves her his fortune, she believes that he is not dead, but tormenting her. She commits herself to prove that he is still out there, ensuring he can make her life a living hell. If you enjoy horror mixed with sci-fi, you will enjoy this film.",
                "author" : "Toyin Martins",
                "link" : "",
                "date" : "27/03/20",
                "image" : "https://live.staticflickr.com/65535/49810495152_983e99ebed_c.jpg",
                "imgalt" : "The invisible man poster shows half the face of Elisabeth Mos to the right of the image. She is looking left and there is a title that reads - the invisible man",
                "short" : "A review of the film: The Inivisible man",
                "sub" : [
                    {
                        "id" : "4",
                        "title" : "",
                        "body" : "Elisabeth Moss’s performance is intriguing but reminds me of her role in the handmaids' tale. Aldis Hodge and Storm Reid, who play her family friends provide a support network for her while she gets her life back on track after her exes death, but things take a turn for the worst and she ends up losing everyone around her leaving her vulnerable. I enjoyed the cinematography and did spend a lot of the film hiding my eyes because the idea of someone invisible chasing you, sounds to me like my worst nightmare. That feeling you get of someone watching you, and someone is watching you. No Thanks! I did enjoy not being able to see what would come next and it put me on edge. ",
                        "subsub" : [
                            {
                                "id" : "4",
                                "title" : "", 
                                "body" : "I would say however I don’t understand the ending. The end was too abrupt and left me with more questions than I started with. If you enjoy strange thrillers, then I do recommend giving this a watch!"
                            }
                        ]
                    }
                ],
          
                "tags" : [
                    {
                        "id" : "4",
                        "name" : "film"
                    }
                ]
                
            }
            
        ]
       },
         {
        "id" : "2",
        "name" : "things",
        "title" : "Things to do...",
        "article" : [
            {
                "id" : "6",
                "title" : "Things To Do: Ormskirk",
                "body" : "The are a few things to do outside of university in Ormskirk(that do not involve drinking and partying)",
                "author" : "Toyin Martins",
                "date" : "28/02/20",
                "image" : "https://live.staticflickr.com/65535/49304620491_0e5d33d063_c.jpg",
                "imgalt" : "The clock tower in the centre of Ormskirk with Christmas lights hung on the surrounding buildings.",
                "short" : "A list of things to do in Ormskirk",
                "sub" : [
                    {
                        "id" : "1",
                        "title" : "Ormskirk Market",
                        "body" : "Ormskirk market is one of the UK’s oldest outdoor markets. The market is held every Thursday and Saturday and is held in the streets surrounding the famous clocktower. With over 100 stalls, there are so many options to choose from. From freshly baked cakes and sweets to outdoor and indoor plants and clothes and fresh fruit; there’s something for everyone.",
                        "subsub" : [
                            {
                            }
                        ]
                    },
                    {
                        "id" : "1",
                        "title" : "Chapel Gallery",
                        "body" : "Chapel Gallery, located on the corner of town before the bus station, showcases artworks from the likes of David Hockney and Peter Blake. Local artists are also able to contribute to the vast collection of contemporary art that exists inside the galleries walls. The gallery offers Art Clubs, music and cinema too. There is also a café and craft and design shop. It is up to you what you take part in, but the Chapel gallery offers many opportunities to get creative!",
                        "subsub" : [
                            {
                            }
                        ]
                    },
                    {
                        "id" : "1",
                        "title" : "Sports and Activities",
                        "body" : "There are many sports activities available in the Ormskirk area. If you own a bike, you can cycle around Ruff woods (not inside of it!) and the surrounding areas. You could even just walk these areas as they are quite peaceful. Some clubs offer activities such as mixed martial arts or Thai boxing, swimming, pole fitness, aerial and much more. There are also the sporting activities hosted by Edge Hill that you can also get involved in too! A quick google search into a sporting activity you may be interested in will provide you with lists of opportunities and pricing!",
                        "subsub" : [
                            {
                            }
                        ]
                    }

                ],
          
                "tags" : [
                    {
                        "id" : "1",
                        "name" : "things to do"
                    }
                ]  
            },
            {
                "id" : "7",
                "title" : "Things To Do: Southport",
                "body" : "Southport has several Attractions to enjoy and you can get a few things done in a day. Just a half-hour bus ride away can take you to the Vue cinema and several different restaurants. You could visit the Southport Pier, or take a ride on a swan pedal on the Marine Lake. ",
                "author" : "Toyin Martins",
                "date" : "23/02/20",
                "image" : "https://live.staticflickr.com/65535/49810201066_c94b1228ba_c.jpg",
                "imgalt" : "Black and white houses with and archway underneath in Southport",
                "short" : "A list of things to do in Southport",
                "sub" : [
                    {
                        "id" : "1",
                        "title" : "Pleasureland",
                        "body" : "Pleasureland is worth a visit if you enjoy rides and amusements. There are also arcades available to enjoy.",
                        "subsub" : [
                            {
                                "id" : "",
                                "title" : "", 
                                "body" : ""
                            }
                        ]
                    },
                    {
                        "id" : "1",
                        "title" : "Beaches",
                        "body" : "Why not take a trip down the coast and enjoy Formby beach. With dunes and coastal pinewoods, this seaside is not one to be missed if you are in the area. Rare wildlife and miles of coastal walks make this destination an enjoyable spot to escape university life. ",
                        "subsub" : [
                            {
                            }
                        ]
                    }

                ],
          
                "tags" : [
                    {
                        "id" : "1",
                        "name" : "things to do"
                    }
                ]  
            }, 
            {
                "id" : "8",
                "title" : "Things To Do: Liverpool",
                "body" : "A list of Activities to do in Liverpool, from museums to shopping; one day trip won't do the city centre justice.",
                "author" : "Toyin Martins",
                "date" : "25/02/20",
                "image" : "https://live.staticflickr.com/65535/49809646613_86e9fa0187_c.jpg",
                "imgalt" : "Buildings in liverpool on the river mersey",
                "short" : "A list of things to do in Liverpool",
                "sub" : [
                    {
                        "id" : "1",
                        "title" : "Liverpool ONE",
                        "body" : "Why not take a trip down to Liverpool ONE. With over 170 different shops, bars and restaurants across five different districts. There is an Odeon Cinema and they also host different events and festivals throughout the year. ",
                         "subsub" : [
                            {
                            }
                        ]
                    },
                    {
                        "id" : "2",
                        "title" : "Museums and Galleries",
                        "body" : "",
                            "subsub" : [
                            {
                                "id" : "1",
                                "title" : "Tate Liverpool", 
                                "body" : "There is a huge range of different museums and galleries to visit. Tate Liverpool is a large gallery with a great collection of works inside. "
                            },
                            {
                                "id" : "2",
                                "title" : "The Beatles Story", 
                                "body" : "The Beatles Story is a museum dedicated to the lives of one of the most famous bands of all time. The museum will allow you to explore the history of the band and you even get to see behind the scenes of Abbey Road!"
                            },
                            {
                                "id" : "3",
                                "title" : "International Slavery Museum ", 
                                "body" : "The museum focuses on the history of the transatlantic slave trade and the impact it had on the city of Liverpool and uncovers the reason for Liverpool’s success as a city. The museum also covers issues surrounding modern-day slavery and human rights. "
                            },
                            {
                                "id" : "4",
                                "title" : "Museum of Liverpool ", 
                                "body" : "The largest purpose-built museum in the UK for more than 100 years. The museum tells the story of Liverpool. The building is an attraction itself and tells the stories of the area during the war, local LGBTQI+ history, archaeology and the Beatles."
                            },
                            {
                                "id" : "5",
                                "title" : "Walker Art Gallery", 
                                "body" : "The Gallery houses one of the largest collections of art outside of London. It is also part of the national museums of Liverpool group. On display are European Renaissance paintings, work by Rubens, Poussin, Rembrandt, Turner and Stubbs, Pre-Raphaelite artworks by Rossetti and Millais and Impressionist works by Monet and Degas."
                            }
                        ]
                    },
                    {
                        "id" : "3",
                        "title" : "Chinatown, Liverpool",
                        "body" : "Chinatown was the first to be established in Europe. The arch was constructed in 2000 as a mark of the redevelopment of the area, which is continuing today, the arch is also the largest multi-span arch of its kind outside of China. Located in the south of the city centre, Chinatown has many businesses such as restaurants and supermarkets that can be explored",
                        "subsub" : [
                            {
                            }
                        ]
                    }

                ],
          
                "tags" : [
                    {
                        "id" : "1",
                        "name" : "things to do"
                    }
                ]  
            },
            {
                "id" : "9",
                "title" : "Things To Do: Burscough",
                "body" : "Burscough, another small town with a few activities centred around wildlife.",
                "author" : "Toyin Martins",
                "link" : "",
                "date" : "25/03/20",
                "image" : "https://live.staticflickr.com/65535/49810500122_5b0257dd62_c.jpg",
                "imgalt" : "A market square with people and buildings in the background on a sunny day",
                "short" : "A list of things to do in Burscough",
                "sub" : [
                    {
                        "id" : "1",
                        "title" : "Windmill Animal Farm",
                        "body" : "Windmill animal farm is mostly targeted to young children, but who doesn’t like animals! You can feed and pet many of the farm’s exotic and rare breed animals and visit others. If you’re missing your pets back home or are just craving some animal attention, why not pop down to Windmill Animal Farm.",
                        "subsub" : [
                            {
                                "id" : "",
                                "title" : "", 
                                "body" : ""
                            }
                        ]
                    },
                    {
                        "id" : "1",
                        "title" : "Martin Mere Wetland Centre",
                        "body" : "The Martin Mere Wetland Centre is a wetland nature reserve and is also known as the birthplace of modern conservation. The centre boasts several activities from nature walks to meet the vast number of different birds, wildlife and farm life at the centre. The site also has Bat and Barn owl nights, photography workshops for beginners and drawing and painting classes. ",
                        "subsub" : [
                            {
                                "id" : "",
                                "title" : "", 
                                "body" : ""
                            }
                        ]
                    }

                ],
          
                "tags" : [
                    {
                        "id" : "1",
                        "name" : "things to do"
                    }
                ]  
            }
        ]
    },
    {
        "id" : "3",
        "name" : "saa",
        "title" : "Societies and Activities",
        "article" : [
            {
                "id" : "10",
                "title" : "Societies",
                "body" : "At Edge Hill, there are a vast number of societies and activities throughout the year. Video gaming and Anime society to Filmmaking and conspiracy theories. There are a vast number of activities available through the Students Union. ",
                "author" : "Toyin Martins",
                "date" : "25/02/20",
                "image" : "https://live.staticflickr.com/65535/49834250012_cc2d2e232c_z.jpg",
                "imgalt" : "An aerial view of Edge Hill University. The accomodation and the playing fields can be seen",
                "short" : "A short post about the societies available at university",
                "sub" : [
                    {
                        "id" : "1",
                        "title" : "Culture",
                        "body" : "There are several cultural societies to sign up to, such as the Christian union, Asian and the multicultural society.",
                       "subsub" : [
                            {
                            }
                        ]
                    },
                    {
                        "id" : "1",
                        "title" : "Creativity",
                        "body" : "If you are looking for something more creative, there are several activities available to you. There is a film making, anime and creative writing society. ",
                        "subsub" : [
                            {
                            }
                        ]
                    },
                    {
                        "id" : "1",
                        "title" : "Gaming",
                        "body" : "If you're looking for people to play games with, there is a video gaming society.",
                        "subsub" : [
                            {
                            }
                        ]
                    },
                    {
                        "id" : "1",
                        "title" : "Film, TV and Media",
                        "body" : "There are other societies like Marvel, Harry Potter , horror, K-pop  and Doctor Who society.",
                        "subsub" : [
                            {
                            }
                        ]
                    },
                    {
                        "id" : "1",
                        "title" : "New Skills",
                        "body" : "There are societies based on skills such as the sign language society and make-up society.",
                        "subsub" : [
                            {
                            }
                        ]
                    },
                    {
                        "id" : "1",
                        "title" : "",
                        "body" : "A Full list of all the societies available at the university can be found on the Student union website.",
                        "subsub" : [
                            {
                                "id" : "",
                                "title" : "", 
                                "body" : "https://www.edgehillsu.org.uk/joinsociety"
                            }
                        ]
                    }

                ],
          
                "tags" : [
                    {
                        "id" : "1",
                        "name" : "things to do"
                    }
                ]  
            },
            {
                "id" : "12",
                "title" : "Activities",
                "body" : "At Edge Hill, there are a vast number of societies and activities throughout the year. Video gaming and Anime society to Filmmaking and conspiracy theories. There are a vast number of activities available through the Students Union. ",
                "author" : "Toyin Martins",
                "date" : "27/03/20",
                "image" : "https://live.staticflickr.com/65535/49850613258_3c24432acd_z.jpg",
                "imgalt" : "The front of the sports centre",
                "short" : "A short post about some of the activities available at university",
                "sub" : [
                    {
                        "id" : "1",
                        "title" : "Edge Hill Sport",
                        "body" : "Edge Hill sport offers many different sporting activities that go on throughout the week. Classes are available to target all different muscle groups, from abs express to box fit. Both on Wednesdays. ",
                        "subsub" : [
                            {
                            }
                        ]
                    },
                    {
                        "id" : "1",
                        "title" : "The Arts Centre",
                        "body" : "The arts Centre boasts an array of different art events throughout the year. From guest performances, comedy, dance, film and theatre. Students also receive a discount on most events and activities so why not get involved. ",
                         "subsub" : [
                            {
                            }
                        ]
                    }

                ],
          
                "tags" : [
                    {
                        "id" : "1",
                        "name" : "things to do"
                    }
                ]  
            }
        ]
    },
    {
        "id" : "4",
        "name" : "uh",
        "title" : "University Hacks",
        "article" : [
            {
                "id" : "11",
                "title" : "Manchester Academic Phrasebank",
                "body" : "‘Academic Phrasebank is a phraseological resource for academic writers organised according to the main sections of a research paper or dissertation.’",
                "author" : "Toyin Martins",
                "date" : "26/02/20",
                "imgalt" : "A screenshot of the Manchester Academic Phrasebank, showing the home page and various other links",
                "image" : "https://live.staticflickr.com/65535/49833169588_740b269284_z.jpg",
                 "short" : "Academic Phrasebank is a phraseological resource for academic writers organised according to the main sections of a research paper or dissertation",
                "sub" : [
                    {
                        "id" : "1",
                        "title" : "",
                        "body" : " The phrase bank has been beneficial throughout my degree. There are sections on introducing work, referring to sources, describing methods and reporting results. The phrase bank includes all the ingredients to help you improve your confidence in your academic writing. There are also sections on being critical and other writing techniques you will need through your university career. ",
                       "subsub" : [
                            {
                            }
                        ]
                    }
                ],
          
                "tags" : [
                    {
                        "id" : "1",
                        "name" : "things to do"
                    }
                ]  
            }
        ]
    }
    
    
    ]
    }